Text Network of 1969 WHC Report
…
## # A tibble: 1 x 2
##   word         n
##   <chr>    <int>
## 1 programs  1518

And the 10 most commonly occuring set of words (or bigrams)…

conference_bigrams <- conference_data  %>%
  unnest_tokens(bigram, word, token = "ngrams", n = 2)

conference_bigrams %>%
  count(bigram, sort = TRUE)

## # A tibble: 78,515 x 2
##    bigram                  n
##    <chr>               <int>
##  1 nutrition education   209
##  2 schools lunch         180
##  3 food stamps           173
##  4 task force            168
##  5 food nutrition        157
##  6 washington d.c        144
##  7 food service          139
##  8 health education      111
##  9 nutrition health      109
## 10 public health         108
## # … with 78,505 more rows
…
